House Price Classification
…
any(is.na(train.data))

## [1] TRUE

prop_miss(train.data)

## [1] 0.002968125

Também vamos sumarizar quais features possuem dados faltantes e em qual
quantidade. Isso ajuda a dimensionar o quanto os dados faltantes afetam
as variáveis afetadas.

miss_var_summary(train.data)

## # A tibble: 81 × 3
##    variable    n_miss pct_miss
##    <chr>        <int>    <dbl>
##  1 LotFrontage    192   16.7  
##  2 GarageYrBlt     80    6.97 
##  3 MasVnrArea       4    0.348
##  4 Id               0    0    
##  5 MSSubClass       0    0    
##  6 MSZoning         0    0    
##  7 LotArea          0    0    
##  8 Street           0    0    
##  9 Alley            0    0    
## 10 LotShape         0    0    
## # … with 71 more rows
…
